Projeto 2/simulation/qsim/Projeto_2.msim.vcd
$comment
	File created using the following command:
		vcd file Projeto_2.msim.vcd -direction
$end
$date
	Thu Sep 23 17:28:37 2021
$end
$version
	ModelSim Version 2020.1
$end
$timescale
	1ps
$end

$scope module switches_vhd_vec_tst $end
$var wire 1 ! clock $end
$var wire 1 " current_number [3] $end
$var wire 1 # current_number [2] $end
$var wire 1 $ current_number [1] $end
$var wire 1 % current_number [0] $end
$var wire 1 & current_step [2] $end
$var wire 1 ' current_step [1] $end
$var wire 1 ( current_step [0] $end
$var wire 1 ) discovered_vector [3] $end
$var wire 1 * discovered_vector [2] $end
$var wire 1 + discovered_vector [1] $end
$var wire 1 , discovered_vector [0] $end
$var wire 1 - output_current_step [2] $end
$var wire 1 . output_current_step [1] $end
$var wire 1 / output_current_step [0] $end
$var wire 1 0 output_discovered_vector [3] $end
$var wire 1 1 output_discovered_vector [2] $end
$var wire 1 2 output_discovered_vector [1] $end
$var wire 1 3 output_discovered_vector [0] $end
$var wire 1 4 output_remaining_lives [2] $end
$var wire 1 5 output_remaining_lives [1] $end
$var wire 1 6 output_remaining_lives [0] $end
$var wire 1 7 remaining_lives [2] $end
$var wire 1 8 remaining_lives [1] $end
$var wire 1 9 remaining_lives [0] $end
$var wire 1 : SW [9] $end
$var wire 1 ; SW [8] $end
$var wire 1 < SW [7] $end
$var wire 1 = SW [6] $end
$var wire 1 > SW [5] $end
$var wire 1 ? SW [4] $end
$var wire 1 @ SW [3] $end
$var wire 1 A SW [2] $end
$var wire 1 B SW [1] $end
$var wire 1 C SW [0] $end

$scope module i1 $end
$var wire 1 D gnd $end
$var wire 1 E vcc $end
$var wire 1 F unknown $end
$var wire 1 G devoe $end
$var wire 1 H devclrn $end
$var wire 1 I devpor $end
$var wire 1 J ww_devoe $end
$var wire 1 K ww_devclrn $end
$var wire 1 L ww_devpor $end
$var wire 1 M ww_clock $end
$var wire 1 N ww_current_number [3] $end
$var wire 1 O ww_current_number [2] $end
$var wire 1 P ww_current_number [1] $end
$var wire 1 Q ww_current_number [0] $end
$var wire 1 R ww_current_step [2] $end
$var wire 1 S ww_current_step [1] $end
$var wire 1 T ww_current_step [0] $end
$var wire 1 U ww_remaining_lives [2] $end
$var wire 1 V ww_remaining_lives [1] $end
$var wire 1 W ww_remaining_lives [0] $end
$var wire 1 X ww_SW [9] $end
$var wire 1 Y ww_SW [8] $end
$var wire 1 Z ww_SW [7] $end
$var wire 1 [ ww_SW [6] $end
$var wire 1 \ ww_SW [5] $end
$var wire 1 ] ww_SW [4] $end
$var wire 1 ^ ww_SW [3] $end
$var wire 1 _ ww_SW [2] $end
$var wire 1 ` ww_SW [1] $end
$var wire 1 a ww_SW [0] $end
$var wire 1 b ww_discovered_vector [3] $end
$var wire 1 c ww_discovered_vector [2] $end
$var wire 1 d ww_discovered_vector [1] $end
$var wire 1 e ww_discovered_vector [0] $end
$var wire 1 f ww_output_remaining_lives [2] $end
$var wire 1 g ww_output_remaining_lives [1] $end
$var wire 1 h ww_output_remaining_lives [0] $end
$var wire 1 i ww_output_current_step [2] $end
$var wire 1 j ww_output_current_step [1] $end
$var wire 1 k ww_output_current_step [0] $end
$var wire 1 l ww_output_discovered_vector [3] $end
$var wire 1 m ww_output_discovered_vector [2] $end
$var wire 1 n ww_output_discovered_vector [1] $end
$var wire 1 o ww_output_discovered_vector [0] $end
$var wire 1 p \Equal22~1clkctrl_INCLK_bus\ [3] $end
$var wire 1 q \Equal22~1clkctrl_INCLK_bus\ [2] $end
$var wire 1 r \Equal22~1clkctrl_INCLK_bus\ [1] $end
$var wire 1 s \Equal22~1clkctrl_INCLK_bus\ [0] $end
$var wire 1 t \clock~inputclkctrl_INCLK_bus\ [3] $end
$var wire 1 u \clock~inputclkctrl_INCLK_bus\ [2] $end
$var wire 1 v \clock~inputclkctrl_INCLK_bus\ [1] $end
$var wire 1 w \clock~inputclkctrl_INCLK_bus\ [0] $end
$var wire 1 x \output_remaining_lives[0]~output_o\ $end
$var wire 1 y \output_remaining_lives[1]~output_o\ $end
$var wire 1 z \output_remaining_lives[2]~output_o\ $end
$var wire 1 { \output_current_step[0]~output_o\ $end
$var wire 1 | \output_current_step[1]~output_o\ $end
$var wire 1 } \output_current_step[2]~output_o\ $end
$var wire 1 ~ \output_discovered_vector[0]~output_o\ $end
$var wire 1 !! \output_discovered_vector[1]~output_o\ $end
$var wire 1 "! \output_discovered_vector[2]~output_o\ $end
$var wire 1 #! \output_discovered_vector[3]~output_o\ $end
$var wire 1 $! \clock~input_o\ $end
$var wire 1 %! \clock~inputclkctrl_outclk\ $end
$var wire 1 &! \remaining_lives[0]~input_o\ $end
$var wire 1 '! \output_rl[0]~18_combout\ $end
$var wire 1 (! \SW[0]~input_o\ $end
$var wire 1 )! \SW[4]~input_o\ $end
$var wire 1 *! \SW[7]~input_o\ $end
$var wire 1 +! \SW[8]~input_o\ $end
$var wire 1 ,! \SW[6]~input_o\ $end
$var wire 1 -! \SW[9]~input_o\ $end
$var wire 1 .! \Equal1~2_combout\ $end
$var wire 1 /! \SW[3]~input_o\ $end
$var wire 1 0! \SW[2]~input_o\ $end
$var wire 1 1! \Equal2~0_combout\ $end
$var wire 1 2! \SW[5]~input_o\ $end
$var wire 1 3! \SW[1]~input_o\ $end
$var wire 1 4! \Equal2~2_combout\ $end
$var wire 1 5! \Equal2~3_combout\ $end
$var wire 1 6! \Equal6~0_combout\ $end
$var wire 1 7! \Equal16~0_combout\ $end
$var wire 1 8! \Equal18~0_combout\ $end
$var wire 1 9! \current_number[2]~input_o\ $end
$var wire 1 :! \current_number[1]~input_o\ $end
$var wire 1 ;! \Equal3~0_combout\ $end
$var wire 1 <! \Equal20~0_combout\ $end
$var wire 1 =! \current_number[3]~input_o\ $end
$var wire 1 >! \output_rl[0]~9_combout\ $end
$var wire 1 ?! \current_number[0]~input_o\ $end
$var wire 1 @! \Equal3~1_combout\ $end
$var wire 1 A! \Equal4~0_combout\ $end
$var wire 1 B! \output_rl~10_combout\ $end
$var wire 1 C! \output_rl[0]~11_combout\ $end
$var wire 1 D! \Equal12~0_combout\ $end
$var wire 1 E! \Equal12~1_combout\ $end
$var wire 1 F! \Equal2~1_combout\ $end
$var wire 1 G! \output_rl[0]~4_combout\ $end
$var wire 1 H! \Equal14~0_combout\ $end
$var wire 1 I! \Equal1~3_combout\ $end
$var wire 1 J! \output_rl[0]~5_combout\ $end
$var wire 1 K! \output_rl[0]~6_combout\ $end
$var wire 1 L! \Equal10~0_combout\ $end
$var wire 1 M! \output_rl[0]~7_combout\ $end
$var wire 1 N! \output_rl[0]~8_combout\ $end
$var wire 1 O! \Equal14~1_combout\ $end
$var wire 1 P! \Equal6~1_combout\ $end
$var wire 1 Q! \output_rl[0]~12_combout\ $end
$var wire 1 R! \output_rl[0]~13_combout\ $end
$var wire 1 S! \Equal8~0_combout\ $end
$var wire 1 T! \output_rl[0]~14_combout\ $end
$var wire 1 U! \output_rl[0]~15_combout\ $end
$var wire 1 V! \output_rl[0]~16_combout\ $end
$var wire 1 W! \last_SW[3]~feeder_combout\ $end
$var wire 1 X! \remaining_lives[2]~input_o\ $end
$var wire 1 Y! \remaining_lives[1]~input_o\ $end
$var wire 1 Z! \LessThan0~0_combout\ $end
$var wire 1 [! \last_SW[9]~feeder_combout\ $end
$var wire 1 \! \output_rl[0]~2_combout\ $end
$var wire 1 ]! \output_rl[0]~0_combout\ $end
$var wire 1 ^! \last_SW[7]~feeder_combout\ $end
$var wire 1 _! \last_SW[8]~feeder_combout\ $end
$var wire 1 `! \output_rl[0]~1_combout\ $end
$var wire 1 a! \output_rl[0]~3_combout\ $end
$var wire 1 b! \output_rl[0]~17_combout\ $end
$var wire 1 c! \Add1~0_combout\ $end
$var wire 1 d! \Add1~1_combout\ $end
$var wire 1 e! \current_step[0]~input_o\ $end
$var wire 1 f! \output_cs[0]~13_combout\ $end
$var wire 1 g! \output_cs[0]~0_combout\ $end
$var wire 1 h! \output_cs[0]~4_combout\ $end
$var wire 1 i! \output_cs[0]~5_combout\ $end
$var wire 1 j! \output_cs[0]~6_combout\ $end
$var wire 1 k! \output_cs[0]~7_combout\ $end
$var wire 1 l! \output_cs[0]~1_combout\ $end
$var wire 1 m! \output_cs[0]~2_combout\ $end
$var wire 1 n! \output_cs[0]~3_combout\ $end
$var wire 1 o! \output_cs[0]~8_combout\ $end
$var wire 1 p! \output_cs[0]~9_combout\ $end
$var wire 1 q! \output_cs[0]~10_combout\ $end
$var wire 1 r! \output_cs[0]~11_combout\ $end
$var wire 1 s! \output_cs[0]~12_combout\ $end
$var wire 1 t! \current_step[1]~input_o\ $end
$var wire 1 u! \Add0~0_combout\ $end
$var wire 1 v! \current_step[2]~input_o\ $end
$var wire 1 w! \Add0~1_combout\ $end
$var wire 1 x! \Equal22~0_combout\ $end
$var wire 1 y! \Add2~0_combout\ $end
$var wire 1 z! \Equal22~1_combout\ $end
$var wire 1 {! \Equal22~1clkctrl_outclk\ $end
$var wire 1 |! \discovered_vector[0]~input_o\ $end
$var wire 1 }! \output_discovered_vector~0_combout\ $end
$var wire 1 ~! \Mux0~0_combout\ $end
$var wire 1 !" \discovered_vector[1]~input_o\ $end
$var wire 1 "" \output_discovered_vector~1_combout\ $end
$var wire 1 #" \Mux0~1_combout\ $end
$var wire 1 $" \discovered_vector[2]~input_o\ $end
$var wire 1 %" \output_discovered_vector~2_combout\ $end
$var wire 1 &" \Mux0~2_combout\ $end
$var wire 1 '" \discovered_vector[3]~input_o\ $end
$var wire 1 (" \output_discovered_vector~3_combout\ $end
$var wire 1 )" output_rl [2] $end
$var wire 1 *" output_rl [1] $end
$var wire 1 +" output_rl [0] $end
$var wire 1 ," output_cs [2] $end
$var wire 1 -" output_cs [1] $end
$var wire 1 ." output_cs [0] $end
$var wire 1 /" last_SW [9] $end
$var wire 1 0" last_SW [8] $end
$var wire 1 1" last_SW [7] $end
$var wire 1 2" last_SW [6] $end
$var wire 1 3" last_SW [5] $end
$var wire 1 4" last_SW [4] $end
$var wire 1 5" last_SW [3] $end
$var wire 1 6" last_SW [2] $end
$var wire 1 7" last_SW [1] $end
$var wire 1 8" last_SW [0] $end
$var wire 1 9" new_discovered_vector [3] $end
$var wire 1 :" new_discovered_vector [2] $end
$var wire 1 ;" new_discovered_vector [1] $end
$var wire 1 <" new_discovered_vector [0] $end
$upscope $end
$upscope $end
$enddefinitions $end
#0
$dumpvars
0!
0D
1E
xF
1G
1H
1I
1J
1K
1L
0M
0x
0y
0z
0{
0|
0}
x~
x!!
x"!
x#!
0$!
0%!
1&!
0'!
0(!
0)!
0*!
0+!
0,!
0-!
1.!
0/!
10!
01!
02!
03!
04!
05!
16!
07!
08!
09!
0:!
1;!
0<!
0=!
0>!
0?!
1@!
0A!
1B!
0C!
0D!
0E!
1F!
0G!
1H!
0I!
1J!
1K!
0L!
1M!
1N!
0O!
1P!
1Q!
0R!
0S!
0T!
0U!
0V!
0W!
1X!
0Y!
1Z!
0[!
1\!
1]!
0^!
0_!
1`!
1a!
1b!
0c!
1d!
0e!
1f!
0g!
0h!
0i!
0j!
0k!
0l!
0m!
0n!
0o!
0p!
0q!
0r!
0s!
0t!
0u!
0v!
0w!
0x!
1y!
0z!
0{!
0|!
x}!
0~!
0!"
x""
0#"
0$"
x%"
0&"
0'"
x("
0"
0#
0$
0%
0&
0'
0(
0)
0*
0+
0,
17
08
19
0:
0;
0<
0=
0>
0?
0@
1A
0B
0C
04
05
06
0-
0.
0/
x0
x1
x2
x3
0N
0O
0P
0Q
0R
0S
0T
1U
0V
1W
0X
0Y
0Z
0[
0\
0]
0^
1_
0`
0a
0b
0c
0d
0e
0f
0g
0h
0i
0j
0k
xl
xm
xn
xo
0)"
0*"
0+"
0,"
0-"
0."
0/"
00"
01"
02"
03"
04"
05"
06"
07"
08"
x9"
x:"
x;"
x<"
1t
1u
1v
0w
1p
1q
1r
0s
$end
#5000
1!
1M
1$!
1w
1%!
16"
1)"
0`!
0a!
1z
0b!
1f
14
#10000
0!
0M
0$!
0w
0%!
#15000
1!
1M
1$!
1w
1%!
#20000
0!
0M
0$!
0w
0%!
#25000
1!
1M
1$!
1w
1%!
#30000
0!
0M
0$!
0w
0%!
#35000
1!
1M
1$!
1w
1%!
#40000
0!
0M
0$!
0w
0%!
#45000
1!
1M
1$!
1w
1%!
#50000
0!
1$
1(
0M
1P
1T
1e!
1:!
0$!
0w
0;!
0@!
0K!
1h!
0f!
1u!
0y!
1o!
0N!
0%!
#55000
1!
1M
1$!
1w
1%!
#60000
0!
0M
0$!
0w
0%!
#65000
1!
1M
1$!
1w
1%!
#70000
0!
0M
0$!
0w
0%!
#75000
1!
1M
1$!
1w
1%!
#80000
0!
0M
0$!
0w
0%!
#85000
1!
1M
1$!
1w
1%!
#90000
0!
0M
0$!
0w
0%!
#95000
1!
1M
1$!
1w
1%!
#100000
0!
0M
0$!
0w
0%!
#105000
1!
1M
1$!
1w
1%!
#110000
0!
0M
0$!
0w
0%!
#115000
1!
1M
1$!
1w
1%!
#120000
0!
0M
0$!
0w
0%!
#125000
1!
1M
1$!
1w
1%!
#130000
0!
0M
0$!
0w
0%!
#135000
1!
1M
1$!
1w
1%!
#140000
0!
0M
0$!
0w
0%!
#145000
1!
1M
1$!
1w
1%!
#150000
0!
0M
0$!
0w
0%!
#155000
1!
1M
1$!
1w
1%!
#160000
0!
0M
0$!
0w
0%!
#165000
1!
1M
1$!
1w
1%!
#170000
0!
0M
0$!
0w
0%!
#175000
1!
1M
1$!
1w
1%!
#180000
0!
0$
0(
0M
0P
0T
0e!
0:!
0$!
0w
1;!
1@!
1K!
0h!
1f!
0u!
1y!
0o!
1N!
0%!
#185000
1!
1M
1$!
1w
1%!
#190000
0!
0M
0$!
0w
0%!
#195000
1!
1M
1$!
1w
1%!
#200000
0!
0M
0$!
0w
0%!
#205000
1!
1M
1$!
1w
1%!
#210000
0!
0M
0$!
0w
0%!
#215000
1!
1M
1$!
1w
1%!
#220000
0!
0M
0$!
0w
0%!
#225000
1!
1M
1$!
1w
1%!
#230000
0!
0M
0$!
0w
0%!
#235000
1!
1M
1$!
1w
1%!
#240000
0!
0M
0$!
0w
0%!
#245000
1!
1M
1$!
1w
1%!
#250000
0!
0M
0$!
0w
0%!
#255000
1!
1M
1$!
1w
1%!
#260000
0!
0M
0$!
0w
0%!
#265000
1!
1M
1$!
1w
1%!
#270000
0!
0M
0$!
0w
0%!
#275000
1!
1M
1$!
1w
1%!
#280000
0!
0M
0$!
0w
0%!
#285000
1!
1M
1$!
1w
1%!
#290000
0!
0M
0$!
0w
0%!
#295000
1!
1M
1$!
1w
1%!
#300000
0!
0M
0$!
0w
0%!
#305000
1!
1M
1$!
1w
1%!
#310000
0!
0M
0$!
0w
0%!
#315000
1!
1M
1$!
1w
1%!
#320000
0!
0M
0$!
0w
0%!
#325000
1!
1M
1$!
1w
1%!
#330000
0!
0M
0$!
0w
0%!
#335000
1!
1M
1$!
1w
1%!
#340000
0!
0M
0$!
0w
0%!
#345000
1!
1M
1$!
1w
1%!
#350000
0!
0M
0$!
0w
0%!
#355000
1!
1M
1$!
1w
1%!
#360000
0!
0M
0$!
0w
0%!
#365000
1!
1M
1$!
1w
1%!
#370000
0!
0M
0$!
0w
0%!
#375000
1!
1M
1$!
1w
1%!
#380000
0!
0M
0$!
0w
0%!
#385000
1!
1M
1$!
1w
1%!
#390000
0!
0M
0$!
0w
0%!
#395000
1!
1M
1$!
1w
1%!
#400000
0!
0M
0$!
0w
0%!
#405000
1!
1M
1$!
1w
1%!
#410000
0!
0M
0$!
0w
0%!
#415000
1!
1M
1$!
1w
1%!
#420000
0!
0M
0$!
0w
0%!
#425000
1!
1M
1$!
1w
1%!
#430000
0!
0M
0$!
0w
0%!
#435000
1!
1M
1$!
1w
1%!
#440000
0!
0M
0$!
0w
0%!
#445000
1!
1M
1$!
1w
1%!
#450000
0!
0M
0$!
0w
0%!
#455000
1!
1M
1$!
1w
1%!
#460000
0!
0M
0$!
0w
0%!
#465000
1!
1M
1$!
1w
1%!
#470000
0!
0M
0$!
0w
0%!
#475000
1!
1M
1$!
1w
1%!
#480000
0!
0M
0$!
0w
0%!
#485000
1!
1M
1$!
1w
1%!
#490000
0!
0M
0$!
0w
0%!
#495000
1!
1M
1$!
1w
1%!
#500000
0!
0M
0$!
0w
0%!
#505000
1!
1M
1$!
1w
1%!
#510000
0!
0M
0$!
0w
0%!
#515000
1!
1M
1$!
1w
1%!
#520000
0!
0M
0$!
0w
0%!
#525000
1!
1M
1$!
1w
1%!
#530000
0!
0M
0$!
0w
0%!
#535000
1!
1M
1$!
1w
1%!
#540000
0!
0M
0$!
0w
0%!
#545000
1!
1M
1$!
1w
1%!
#550000
0!
0M
0$!
0w
0%!
#555000
1!
1M
1$!
1w
1%!
#560000
0!
0M
0$!
0w
0%!
#565000
1!
1M
1$!
1w
1%!
#570000
0!
0M
0$!
0w
0%!
#575000
1!
1M
1$!
1w
1%!
#580000
0!
0M
0$!
0w
0%!
#585000
1!
1M
1$!
1w
1%!
#590000
0!
0M
0$!
0w
0%!
#595000
1!
1M
1$!
1w
1%!
#600000
0!
0M
0$!
0w
0%!
#605000
1!
1M
1$!
1w
1%!
#610000
0!
0M
0$!
0w
0%!
#615000
1!
1M
1$!
1w
1%!
#620000
0!
0M
0$!
0w
0%!
#625000
1!
1M
1$!
1w
1%!
#630000
0!
0M
0$!
0w
0%!
#635000
1!
1M
1$!
1w
1%!
#640000
0!
0M
0$!
0w
0%!
#645000
1!
1M
1$!
1w
1%!
#650000
0!
0M
0$!
0w
0%!
#655000
1!
1M
1$!
1w
1%!
#660000
0!
0M
0$!
0w
0%!
#665000
1!
1M
1$!
1w
1%!
#670000
0!
0M
0$!
0w
0%!
#675000
1!
1M
1$!
1w
1%!
#680000
0!
0M
0$!
0w
0%!
#685000
1!
1M
1$!
1w
1%!
#690000
0!
0M
0$!
0w
0%!
#695000
1!
1M
1$!
1w
1%!
#700000
0!
0M
0$!
0w
0%!
#705000
1!
1M
1$!
1w
1%!
#710000
0!
0M
0$!
0w
0%!
#715000
1!
1M
1$!
1w
1%!
#720000
0!
0M
0$!
0w
0%!
#725000
1!
1M
1$!
1w
1%!
#730000
0!
0M
0$!
0w
0%!
#735000
1!
1M
1$!
1w
1%!
#740000
0!
0M
0$!
0w
0%!
#745000
1!
1M
1$!
1w
1%!
#750000
0!
0M
0$!
0w
0%!
#755000
1!
1M
1$!
1w
1%!
#760000
0!
0M
0$!
0w
0%!
#765000
1!
1M
1$!
1w
1%!
#770000
0!
0M
0$!
0w
0%!
#775000
1!
1M
1$!
1w
1%!
#780000
0!
0M
0$!
0w
0%!
#785000
1!
1M
1$!
1w
1%!
#790000
0!
0M
0$!
0w
0%!
#795000
1!
1M
1$!
1w
1%!
#800000
0!
0M
0$!
0w
0%!
#805000
1!
1M
1$!
1w
1%!
#810000
0!
0M
0$!
0w
0%!
#815000
1!
1M
1$!
1w
1%!
#820000
0!
0M
0$!
0w
0%!
#825000
1!
1M
1$!
1w
1%!
#830000
0!
0M
0$!
0w
0%!
#835000
1!
1M
1$!
1w
1%!
#840000
0!
0M
0$!
0w
0%!
#845000
1!
1M
1$!
1w
1%!
#850000
0!
0M
0$!
0w
0%!
#855000
1!
1M
1$!
1w
1%!
#860000
0!
0M
0$!
0w
0%!
#865000
1!
1M
1$!
1w
1%!
#870000
0!
0M
0$!
0w
0%!
#875000
1!
1M
1$!
1w
1%!
#880000
0!
0M
0$!
0w
0%!
#885000
1!
1M
1$!
1w
1%!
#890000
0!
0M
0$!
0w
0%!
#895000
1!
1M
1$!
1w
1%!
#900000
0!
0M
0$!
0w
0%!
#905000
1!
1M
1$!
1w
1%!
#910000
0!
0M
0$!
0w
0%!
#915000
1!
1M
1$!
1w
1%!
#920000
0!
0M
0$!
0w
0%!
#925000
1!
1M
1$!
1w
1%!
#930000
0!
0M
0$!
0w
0%!
#935000
1!
1M
1$!
1w
1%!
#940000
0!
0M
0$!
0w
0%!
#945000
1!
1M
1$!
1w
1%!
#950000
0!
0M
0$!
0w
0%!
#955000
1!
1M
1$!
1w
1%!
#960000
0!
0M
0$!
0w
0%!
#965000
1!
1M
1$!
1w
1%!
#970000
0!
0M
0$!
0w
0%!
#975000
1!
1M
1$!
1w
1%!
#980000
0!
0M
0$!
0w
0%!
#985000
1!
1M
1$!
1w
1%!
#990000
0!
0M
0$!
0w
0%!
#995000
1!
1M
1$!
1w
1%!
