Projeto 2/simulation/qsim/Projeto_2.msim.vcd
$comment
	File created using the following command:
		vcd file Projeto_2.msim.vcd -direction
$end
$date
	Fri Sep 24 00:34:50 2021
$end
$version
	ModelSim Version 2020.1
$end
$timescale
	1ps
$end

$scope module main_vhd_vec_tst $end
$var wire 1 ! CLOCK_50 $end
$var wire 1 " HEX0 [6] $end
$var wire 1 # HEX0 [5] $end
$var wire 1 $ HEX0 [4] $end
$var wire 1 % HEX0 [3] $end
$var wire 1 & HEX0 [2] $end
$var wire 1 ' HEX0 [1] $end
$var wire 1 ( HEX0 [0] $end
$var wire 1 ) HEX1 [6] $end
$var wire 1 * HEX1 [5] $end
$var wire 1 + HEX1 [4] $end
$var wire 1 , HEX1 [3] $end
$var wire 1 - HEX1 [2] $end
$var wire 1 . HEX1 [1] $end
$var wire 1 / HEX1 [0] $end
$var wire 1 0 HEX2 [6] $end
$var wire 1 1 HEX2 [5] $end
$var wire 1 2 HEX2 [4] $end
$var wire 1 3 HEX2 [3] $end
$var wire 1 4 HEX2 [2] $end
$var wire 1 5 HEX2 [1] $end
$var wire 1 6 HEX2 [0] $end
$var wire 1 7 HEX3 [6] $end
$var wire 1 8 HEX3 [5] $end
$var wire 1 9 HEX3 [4] $end
$var wire 1 : HEX3 [3] $end
$var wire 1 ; HEX3 [2] $end
$var wire 1 < HEX3 [1] $end
$var wire 1 = HEX3 [0] $end
$var wire 1 > HEX4 [6] $end
$var wire 1 ? HEX4 [5] $end
$var wire 1 @ HEX4 [4] $end
$var wire 1 A HEX4 [3] $end
$var wire 1 B HEX4 [2] $end
$var wire 1 C HEX4 [1] $end
$var wire 1 D HEX4 [0] $end
$var wire 1 E LEDR [4] $end
$var wire 1 F LEDR [3] $end
$var wire 1 G LEDR [2] $end
$var wire 1 H LEDR [1] $end
$var wire 1 I LEDR [0] $end
$var wire 1 J OUT_DISC [3] $end
$var wire 1 K OUT_DISC [2] $end
$var wire 1 L OUT_DISC [1] $end
$var wire 1 M OUT_DISC [0] $end
$var wire 1 N SW [9] $end
$var wire 1 O SW [8] $end
$var wire 1 P SW [7] $end
$var wire 1 Q SW [6] $end
$var wire 1 R SW [5] $end
$var wire 1 S SW [4] $end
$var wire 1 T SW [3] $end
$var wire 1 U SW [2] $end
$var wire 1 V SW [1] $end
$var wire 1 W SW [0] $end

$scope module i1 $end
$var wire 1 X gnd $end
$var wire 1 Y vcc $end
$var wire 1 Z unknown $end
$var wire 1 [ devoe $end
$var wire 1 \ devclrn $end
$var wire 1 ] devpor $end
$var wire 1 ^ ww_devoe $end
$var wire 1 _ ww_devclrn $end
$var wire 1 ` ww_devpor $end
$var wire 1 a ww_CLOCK_50 $end
$var wire 1 b ww_HEX0 [6] $end
$var wire 1 c ww_HEX0 [5] $end
$var wire 1 d ww_HEX0 [4] $end
$var wire 1 e ww_HEX0 [3] $end
$var wire 1 f ww_HEX0 [2] $end
$var wire 1 g ww_HEX0 [1] $end
$var wire 1 h ww_HEX0 [0] $end
$var wire 1 i ww_HEX1 [6] $end
$var wire 1 j ww_HEX1 [5] $end
$var wire 1 k ww_HEX1 [4] $end
$var wire 1 l ww_HEX1 [3] $end
$var wire 1 m ww_HEX1 [2] $end
$var wire 1 n ww_HEX1 [1] $end
$var wire 1 o ww_HEX1 [0] $end
$var wire 1 p ww_HEX2 [6] $end
$var wire 1 q ww_HEX2 [5] $end
$var wire 1 r ww_HEX2 [4] $end
$var wire 1 s ww_HEX2 [3] $end
$var wire 1 t ww_HEX2 [2] $end
$var wire 1 u ww_HEX2 [1] $end
$var wire 1 v ww_HEX2 [0] $end
$var wire 1 w ww_HEX3 [6] $end
$var wire 1 x ww_HEX3 [5] $end
$var wire 1 y ww_HEX3 [4] $end
$var wire 1 z ww_HEX3 [3] $end
$var wire 1 { ww_HEX3 [2] $end
$var wire 1 | ww_HEX3 [1] $end
$var wire 1 } ww_HEX3 [0] $end
$var wire 1 ~ ww_HEX4 [6] $end
$var wire 1 !! ww_HEX4 [5] $end
$var wire 1 "! ww_HEX4 [4] $end
$var wire 1 #! ww_HEX4 [3] $end
$var wire 1 $! ww_HEX4 [2] $end
$var wire 1 %! ww_HEX4 [1] $end
$var wire 1 &! ww_HEX4 [0] $end
$var wire 1 '! ww_LEDR [4] $end
$var wire 1 (! ww_LEDR [3] $end
$var wire 1 )! ww_LEDR [2] $end
$var wire 1 *! ww_LEDR [1] $end
$var wire 1 +! ww_LEDR [0] $end
$var wire 1 ,! ww_SW [9] $end
$var wire 1 -! ww_SW [8] $end
$var wire 1 .! ww_SW [7] $end
$var wire 1 /! ww_SW [6] $end
$var wire 1 0! ww_SW [5] $end
$var wire 1 1! ww_SW [4] $end
$var wire 1 2! ww_SW [3] $end
$var wire 1 3! ww_SW [2] $end
$var wire 1 4! ww_SW [1] $end
$var wire 1 5! ww_SW [0] $end
$var wire 1 6! ww_OUT_DISC [3] $end
$var wire 1 7! ww_OUT_DISC [2] $end
$var wire 1 8! ww_OUT_DISC [1] $end
$var wire 1 9! ww_OUT_DISC [0] $end
$var wire 1 :! \CLOCK_50~input_o\ $end
$var wire 1 ;! \SW[0]~input_o\ $end
$var wire 1 <! \SW[1]~input_o\ $end
$var wire 1 =! \SW[2]~input_o\ $end
$var wire 1 >! \SW[3]~input_o\ $end
$var wire 1 ?! \SW[4]~input_o\ $end
$var wire 1 @! \SW[5]~input_o\ $end
$var wire 1 A! \SW[6]~input_o\ $end
$var wire 1 B! \SW[7]~input_o\ $end
$var wire 1 C! \SW[8]~input_o\ $end
$var wire 1 D! \SW[9]~input_o\ $end
$var wire 1 E! \HEX0[0]~output_o\ $end
$var wire 1 F! \HEX0[1]~output_o\ $end
$var wire 1 G! \HEX0[2]~output_o\ $end
$var wire 1 H! \HEX0[3]~output_o\ $end
$var wire 1 I! \HEX0[4]~output_o\ $end
$var wire 1 J! \HEX0[5]~output_o\ $end
$var wire 1 K! \HEX0[6]~output_o\ $end
$var wire 1 L! \HEX1[0]~output_o\ $end
$var wire 1 M! \HEX1[1]~output_o\ $end
$var wire 1 N! \HEX1[2]~output_o\ $end
$var wire 1 O! \HEX1[3]~output_o\ $end
$var wire 1 P! \HEX1[4]~output_o\ $end
$var wire 1 Q! \HEX1[5]~output_o\ $end
$var wire 1 R! \HEX1[6]~output_o\ $end
$var wire 1 S! \HEX2[0]~output_o\ $end
$var wire 1 T! \HEX2[1]~output_o\ $end
$var wire 1 U! \HEX2[2]~output_o\ $end
$var wire 1 V! \HEX2[3]~output_o\ $end
$var wire 1 W! \HEX2[4]~output_o\ $end
$var wire 1 X! \HEX2[5]~output_o\ $end
$var wire 1 Y! \HEX2[6]~output_o\ $end
$var wire 1 Z! \HEX3[0]~output_o\ $end
$var wire 1 [! \HEX3[1]~output_o\ $end
$var wire 1 \! \HEX3[2]~output_o\ $end
$var wire 1 ]! \HEX3[3]~output_o\ $end
$var wire 1 ^! \HEX3[4]~output_o\ $end
$var wire 1 _! \HEX3[5]~output_o\ $end
$var wire 1 `! \HEX3[6]~output_o\ $end
$var wire 1 a! \HEX4[0]~output_o\ $end
$var wire 1 b! \HEX4[1]~output_o\ $end
$var wire 1 c! \HEX4[2]~output_o\ $end
$var wire 1 d! \HEX4[3]~output_o\ $end
$var wire 1 e! \HEX4[4]~output_o\ $end
$var wire 1 f! \HEX4[5]~output_o\ $end
$var wire 1 g! \HEX4[6]~output_o\ $end
$var wire 1 h! \LEDR[0]~output_o\ $end
$var wire 1 i! \LEDR[1]~output_o\ $end
$var wire 1 j! \LEDR[2]~output_o\ $end
$var wire 1 k! \LEDR[3]~output_o\ $end
$var wire 1 l! \LEDR[4]~output_o\ $end
$var wire 1 m! \OUT_DISC[0]~output_o\ $end
$var wire 1 n! \OUT_DISC[1]~output_o\ $end
$var wire 1 o! \OUT_DISC[2]~output_o\ $end
$var wire 1 p! \OUT_DISC[3]~output_o\ $end
$upscope $end
$upscope $end
$enddefinitions $end
#0
$dumpvars
0!
0X
1Y
xZ
1[
1\
1]
1^
1_
1`
0a
0:!
0;!
0<!
0=!
0>!
0?!
0@!
0A!
0B!
0C!
0D!
0E!
0F!
1G!
1H!
0I!
0J!
0K!
1L!
1M!
1N!
1O!
1P!
1Q!
0R!
1S!
1T!
1U!
1V!
1W!
1X!
0Y!
1Z!
1[!
1\!
1]!
1^!
1_!
0`!
1a!
1b!
1c!
1d!
1e!
1f!
0g!
0h!
0i!
0j!
0k!
0l!
0m!
0n!
0o!
0p!
0N
0O
0P
0Q
0R
0S
0T
0U
0V
0W
0b
0c
0d
1e
1f
0g
0h
0i
1j
1k
1l
1m
1n
1o
0p
1q
1r
1s
1t
1u
1v
0w
1x
1y
1z
1{
1|
1}
0~
1!!
1"!
1#!
1$!
1%!
1&!
0'!
0(!
0)!
0*!
0+!
0,!
0-!
0.!
0/!
00!
01!
02!
03!
04!
05!
06!
07!
08!
09!
0"
0#
0$
1%
1&
0'
0(
0)
1*
1+
1,
1-
1.
1/
00
11
12
13
14
15
16
07
18
19
1:
1;
1<
1=
0>
1?
1@
1A
1B
1C
1D
0E
0F
0G
0H
0I
0J
0K
0L
0M
$end
#5000
1!
1a
1:!
#10000
0!
0a
0:!
#15000
1!
1a
1:!
#20000
0!
0a
0:!
#25000
1!
1a
1:!
#30000
0!
0a
0:!
#35000
1!
1a
1:!
#40000
0!
0a
0:!
#45000
1!
1a
1:!
#50000
0!
0a
0:!
#55000
1!
1a
1:!
#60000
0!
1S
0a
11!
1?!
0:!
#65000
1!
1a
1:!
#70000
0!
0a
0:!
#75000
1!
1a
1:!
#80000
0!
0a
0:!
#85000
1!
1a
1:!
#90000
0!
0a
0:!
#95000
1!
1a
1:!
#100000
0!
0a
0:!
#105000
1!
1a
1:!
#110000
0!
0a
0:!
#115000
1!
1a
1:!
#120000
0!
0a
0:!
#125000
1!
1a
1:!
#130000
0!
0a
0:!
#135000
1!
1a
1:!
#140000
0!
0a
0:!
#145000
1!
1a
1:!
#150000
0!
0S
0a
01!
0?!
0:!
#155000
1!
1a
1:!
#160000
0!
0a
0:!
#165000
1!
1a
1:!
#170000
0!
0a
0:!
#175000
1!
1a
1:!
#180000
0!
0a
0:!
#185000
1!
1a
1:!
#190000
0!
0a
0:!
#195000
1!
1a
1:!
#200000
0!
0a
0:!
#205000
1!
1a
1:!
#210000
0!
0a
0:!
#215000
1!
1a
1:!
#220000
0!
0a
0:!
#225000
1!
1a
1:!
#230000
0!
0a
0:!
#235000
1!
1a
1:!
#240000
0!
0a
0:!
#245000
1!
1a
1:!
#250000
0!
0a
0:!
#255000
1!
1a
1:!
#260000
0!
0a
0:!
#265000
1!
1a
1:!
#270000
0!
0a
0:!
#275000
1!
1a
1:!
#280000
0!
0a
0:!
#285000
1!
1a
1:!
#290000
0!
0a
0:!
#295000
1!
1a
1:!
#300000
0!
0a
0:!
#305000
1!
1a
1:!
#310000
0!
0a
0:!
#315000
1!
1a
1:!
#320000
0!
0a
0:!
#325000
1!
1a
1:!
#330000
0!
0a
0:!
#335000
1!
1a
1:!
#340000
0!
0a
0:!
#345000
1!
1a
1:!
#350000
0!
0a
0:!
#355000
1!
1a
1:!
#360000
0!
0a
0:!
#365000
1!
1a
1:!
#370000
0!
0a
0:!
#375000
1!
1a
1:!
#380000
0!
0a
0:!
#385000
1!
1a
1:!
#390000
0!
0a
0:!
#395000
1!
1a
1:!
#400000
0!
0a
0:!
#405000
1!
1a
1:!
#410000
0!
0a
0:!
#415000
1!
1a
1:!
#420000
0!
0a
0:!
#425000
1!
1a
1:!
#430000
0!
0a
0:!
#435000
1!
1a
1:!
#440000
0!
0a
0:!
#445000
1!
1a
1:!
#450000
0!
0a
0:!
#455000
1!
1a
1:!
#460000
0!
0a
0:!
#465000
1!
1a
1:!
#470000
0!
0a
0:!
#475000
1!
1a
1:!
#480000
0!
0a
0:!
#485000
1!
1a
1:!
#490000
0!
0a
0:!
#495000
1!
1a
1:!
#500000
0!
0a
0:!
#505000
1!
1a
1:!
#510000
0!
0a
0:!
#515000
1!
1a
1:!
#520000
0!
0a
0:!
#525000
1!
1a
1:!
#530000
0!
0a
0:!
#535000
1!
1a
1:!
#540000
0!
0a
0:!
#545000
1!
1a
1:!
#550000
0!
0a
0:!
#555000
1!
1a
1:!
#560000
0!
0a
0:!
#565000
1!
1a
1:!
#570000
0!
0a
0:!
#575000
1!
1a
1:!
#580000
0!
0a
0:!
#585000
1!
1a
1:!
#590000
0!
0a
0:!
#595000
1!
1a
1:!
#600000
0!
0a
0:!
#605000
1!
1a
1:!
#610000
0!
0a
0:!
#615000
1!
1a
1:!
#620000
0!
0a
0:!
#625000
1!
1a
1:!
#630000
0!
0a
0:!
#635000
1!
1a
1:!
#640000
0!
0a
0:!
#645000
1!
1a
1:!
#650000
0!
0a
0:!
#655000
1!
1a
1:!
#660000
0!
0a
0:!
#665000
1!
1a
1:!
#670000
0!
0a
0:!
#675000
1!
1a
1:!
#680000
0!
0a
0:!
#685000
1!
1a
1:!
#690000
0!
0a
0:!
#695000
1!
1a
1:!
#700000
0!
0a
0:!
#705000
1!
1a
1:!
#710000
0!
0a
0:!
#715000
1!
1a
1:!
#720000
0!
0a
0:!
#725000
1!
1a
1:!
#730000
0!
0a
0:!
#735000
1!
1a
1:!
#740000
0!
0a
0:!
#745000
1!
1a
1:!
#750000
0!
0a
0:!
#755000
1!
1a
1:!
#760000
0!
0a
0:!
#765000
1!
1a
1:!
#770000
0!
0a
0:!
#775000
1!
1a
1:!
#780000
0!
0a
0:!
#785000
1!
1a
1:!
#790000
0!
0a
0:!
#795000
1!
1a
1:!
#800000
0!
0a
0:!
#805000
1!
1a
1:!
#810000
0!
0a
0:!
#815000
1!
1a
1:!
#820000
0!
0a
0:!
#825000
1!
1a
1:!
#830000
0!
0a
0:!
#835000
1!
1a
1:!
#840000
0!
0a
0:!
#845000
1!
1a
1:!
#850000
0!
0a
0:!
#855000
1!
1a
1:!
#860000
0!
0a
0:!
#865000
1!
1a
1:!
#870000
0!
0a
0:!
#875000
1!
1a
1:!
#880000
0!
0a
0:!
#885000
1!
1a
1:!
#890000
0!
0a
0:!
#895000
1!
1a
1:!
#900000
0!
0a
0:!
#905000
1!
1a
1:!
#910000
0!
0a
0:!
#915000
1!
1a
1:!
#920000
0!
0a
0:!
#925000
1!
1a
1:!
#930000
0!
0a
0:!
#935000
1!
1a
1:!
#940000
0!
0a
0:!
#945000
1!
1a
1:!
#950000
0!
0a
0:!
#955000
1!
1a
1:!
#960000
0!
0a
0:!
#965000
1!
1a
1:!
#970000
0!
0a
0:!
#975000
1!
1a
1:!
#980000
0!
0a
0:!
#985000
1!
1a
1:!
#990000
0!
0a
0:!
#995000
1!
1a
1:!
