Projeto 2_Malandro/simulation/qsim/Projeto2Malandro.msim.vcd
$comment
	File created using the following command:
		vcd file Projeto2Malandro.msim.vcd -direction
$end
$date
	Thu Sep 23 15:26:16 2021
$end
$version
	ModelSim Version 2020.1
$end
$timescale
	1ps
$end

$scope module main_vhd_vec_tst $end
$var wire 1 ! CLOCK_50 $end
$var wire 1 " HEX0 [6] $end
$var wire 1 # HEX0 [5] $end
$var wire 1 $ HEX0 [4] $end
$var wire 1 % HEX0 [3] $end
$var wire 1 & HEX0 [2] $end
$var wire 1 ' HEX0 [1] $end
$var wire 1 ( HEX0 [0] $end
$var wire 1 ) HEX2 [6] $end
$var wire 1 * HEX2 [5] $end
$var wire 1 + HEX2 [4] $end
$var wire 1 , HEX2 [3] $end
$var wire 1 - HEX2 [2] $end
$var wire 1 . HEX2 [1] $end
$var wire 1 / HEX2 [0] $end
$var wire 1 0 HEX3 [6] $end
$var wire 1 1 HEX3 [5] $end
$var wire 1 2 HEX3 [4] $end
$var wire 1 3 HEX3 [3] $end
$var wire 1 4 HEX3 [2] $end
$var wire 1 5 HEX3 [1] $end
$var wire 1 6 HEX3 [0] $end
$var wire 1 7 HEX4 [6] $end
$var wire 1 8 HEX4 [5] $end
$var wire 1 9 HEX4 [4] $end
$var wire 1 : HEX4 [3] $end
$var wire 1 ; HEX4 [2] $end
$var wire 1 < HEX4 [1] $end
$var wire 1 = HEX4 [0] $end
$var wire 1 > HEX5 [6] $end
$var wire 1 ? HEX5 [5] $end
$var wire 1 @ HEX5 [4] $end
$var wire 1 A HEX5 [3] $end
$var wire 1 B HEX5 [2] $end
$var wire 1 C HEX5 [1] $end
$var wire 1 D HEX5 [0] $end
$var wire 1 E LEDR [4] $end
$var wire 1 F LEDR [3] $end
$var wire 1 G LEDR [2] $end
$var wire 1 H LEDR [1] $end
$var wire 1 I LEDR [0] $end
$var wire 1 J SW [9] $end
$var wire 1 K SW [8] $end
$var wire 1 L SW [7] $end
$var wire 1 M SW [6] $end
$var wire 1 N SW [5] $end
$var wire 1 O SW [4] $end
$var wire 1 P SW [3] $end
$var wire 1 Q SW [2] $end
$var wire 1 R SW [1] $end
$var wire 1 S SW [0] $end

$scope module i1 $end
$var wire 1 T gnd $end
$var wire 1 U vcc $end
$var wire 1 V unknown $end
$var wire 1 W devoe $end
$var wire 1 X devclrn $end
$var wire 1 Y devpor $end
$var wire 1 Z ww_devoe $end
$var wire 1 [ ww_devclrn $end
$var wire 1 \ ww_devpor $end
$var wire 1 ] ww_CLOCK_50 $end
$var wire 1 ^ ww_HEX0 [6] $end
$var wire 1 _ ww_HEX0 [5] $end
$var wire 1 ` ww_HEX0 [4] $end
$var wire 1 a ww_HEX0 [3] $end
$var wire 1 b ww_HEX0 [2] $end
$var wire 1 c ww_HEX0 [1] $end
$var wire 1 d ww_HEX0 [0] $end
$var wire 1 e ww_HEX2 [6] $end
$var wire 1 f ww_HEX2 [5] $end
$var wire 1 g ww_HEX2 [4] $end
$var wire 1 h ww_HEX2 [3] $end
$var wire 1 i ww_HEX2 [2] $end
$var wire 1 j ww_HEX2 [1] $end
$var wire 1 k ww_HEX2 [0] $end
$var wire 1 l ww_HEX3 [6] $end
$var wire 1 m ww_HEX3 [5] $end
$var wire 1 n ww_HEX3 [4] $end
$var wire 1 o ww_HEX3 [3] $end
$var wire 1 p ww_HEX3 [2] $end
$var wire 1 q ww_HEX3 [1] $end
$var wire 1 r ww_HEX3 [0] $end
$var wire 1 s ww_HEX4 [6] $end
$var wire 1 t ww_HEX4 [5] $end
$var wire 1 u ww_HEX4 [4] $end
$var wire 1 v ww_HEX4 [3] $end
$var wire 1 w ww_HEX4 [2] $end
$var wire 1 x ww_HEX4 [1] $end
$var wire 1 y ww_HEX4 [0] $end
$var wire 1 z ww_HEX5 [6] $end
$var wire 1 { ww_HEX5 [5] $end
$var wire 1 | ww_HEX5 [4] $end
$var wire 1 } ww_HEX5 [3] $end
$var wire 1 ~ ww_HEX5 [2] $end
$var wire 1 !! ww_HEX5 [1] $end
$var wire 1 "! ww_HEX5 [0] $end
$var wire 1 #! ww_LEDR [4] $end
$var wire 1 $! ww_LEDR [3] $end
$var wire 1 %! ww_LEDR [2] $end
$var wire 1 &! ww_LEDR [1] $end
$var wire 1 '! ww_LEDR [0] $end
$var wire 1 (! ww_SW [9] $end
$var wire 1 )! ww_SW [8] $end
$var wire 1 *! ww_SW [7] $end
$var wire 1 +! ww_SW [6] $end
$var wire 1 ,! ww_SW [5] $end
$var wire 1 -! ww_SW [4] $end
$var wire 1 .! ww_SW [3] $end
$var wire 1 /! ww_SW [2] $end
$var wire 1 0! ww_SW [1] $end
$var wire 1 1! ww_SW [0] $end
$var wire 1 2! \CLOCK_50~inputclkctrl_INCLK_bus\ [3] $end
$var wire 1 3! \CLOCK_50~inputclkctrl_INCLK_bus\ [2] $end
$var wire 1 4! \CLOCK_50~inputclkctrl_INCLK_bus\ [1] $end
$var wire 1 5! \CLOCK_50~inputclkctrl_INCLK_bus\ [0] $end
$var wire 1 6! \HEX0[0]~output_o\ $end
$var wire 1 7! \HEX0[1]~output_o\ $end
$var wire 1 8! \HEX0[2]~output_o\ $end
$var wire 1 9! \HEX0[3]~output_o\ $end
$var wire 1 :! \HEX0[4]~output_o\ $end
$var wire 1 ;! \HEX0[5]~output_o\ $end
$var wire 1 <! \HEX0[6]~output_o\ $end
$var wire 1 =! \HEX2[0]~output_o\ $end
$var wire 1 >! \HEX2[1]~output_o\ $end
$var wire 1 ?! \HEX2[2]~output_o\ $end
$var wire 1 @! \HEX2[3]~output_o\ $end
$var wire 1 A! \HEX2[4]~output_o\ $end
$var wire 1 B! \HEX2[5]~output_o\ $end
$var wire 1 C! \HEX2[6]~output_o\ $end
$var wire 1 D! \HEX3[0]~output_o\ $end
$var wire 1 E! \HEX3[1]~output_o\ $end
$var wire 1 F! \HEX3[2]~output_o\ $end
$var wire 1 G! \HEX3[3]~output_o\ $end
$var wire 1 H! \HEX3[4]~output_o\ $end
$var wire 1 I! \HEX3[5]~output_o\ $end
$var wire 1 J! \HEX3[6]~output_o\ $end
$var wire 1 K! \HEX4[0]~output_o\ $end
$var wire 1 L! \HEX4[1]~output_o\ $end
$var wire 1 M! \HEX4[2]~output_o\ $end
$var wire 1 N! \HEX4[3]~output_o\ $end
$var wire 1 O! \HEX4[4]~output_o\ $end
$var wire 1 P! \HEX4[5]~output_o\ $end
$var wire 1 Q! \HEX4[6]~output_o\ $end
$var wire 1 R! \HEX5[0]~output_o\ $end
$var wire 1 S! \HEX5[1]~output_o\ $end
$var wire 1 T! \HEX5[2]~output_o\ $end
$var wire 1 U! \HEX5[3]~output_o\ $end
$var wire 1 V! \HEX5[4]~output_o\ $end
$var wire 1 W! \HEX5[5]~output_o\ $end
$var wire 1 X! \HEX5[6]~output_o\ $end
$var wire 1 Y! \LEDR[0]~output_o\ $end
$var wire 1 Z! \LEDR[1]~output_o\ $end
$var wire 1 [! \LEDR[2]~output_o\ $end
$var wire 1 \! \LEDR[3]~output_o\ $end
$var wire 1 ]! \LEDR[4]~output_o\ $end
$var wire 1 ^! \CLOCK_50~input_o\ $end
$var wire 1 _! \CLOCK_50~inputclkctrl_outclk\ $end
$var wire 1 `! \SW[2]~input_o\ $end
$var wire 1 a! \SW[1]~input_o\ $end
$var wire 1 b! \SW[5]~input_o\ $end
$var wire 1 c! \SW[9]~input_o\ $end
$var wire 1 d! \SW[8]~input_o\ $end
$var wire 1 e! \SW[7]~input_o\ $end
$var wire 1 f! \SW[6]~input_o\ $end
$var wire 1 g! \sws|Equal1~1_combout\ $end
$var wire 1 h! \SW[4]~input_o\ $end
$var wire 1 i! \SW[0]~input_o\ $end
$var wire 1 j! \sws|Equal4~0_combout\ $end
$var wire 1 k! \SW[3]~input_o\ $end
$var wire 1 l! \sws|Equal8~0_combout\ $end
$var wire 1 m! \sws|Equal6~0_combout\ $end
$var wire 1 n! \sws|output_cs[2]~1_combout\ $end
$var wire 1 o! \sws|Equal4~1_combout\ $end
$var wire 1 p! \sws|Equal9~0_combout\ $end
$var wire 1 q! \sws|Equal2~1_combout\ $end
$var wire 1 r! \sws|Equal2~0_combout\ $end
$var wire 1 s! \sws|Equal3~0_combout\ $end
$var wire 1 t! \sws|output_cs[2]~2_combout\ $end
$var wire 1 u! \sws|output_cs[2]~3_combout\ $end
$var wire 1 v! \sws|output_rl~17_combout\ $end
$var wire 1 w! \sws|output_rl~16_combout\ $end
$var wire 1 x! \sws|output_rl[2]~7_combout\ $end
$var wire 1 y! \sws|output_rl[2]~3_combout\ $end
$var wire 1 z! \sws|output_rl[2]~26_combout\ $end
$var wire 1 {! \sws|output_rl[2]~20_combout\ $end
$var wire 1 |! \sws|Equal1~0_combout\ $end
$var wire 1 }! \sws|Equal18~0_combout\ $end
$var wire 1 ~! \sws|output_rl~18_combout\ $end
$var wire 1 !" \sws|output_rl[2]~19_combout\ $end
$var wire 1 "" \sws|output_rl[2]~21_combout\ $end
$var wire 1 #" \sws|output_rl[0]~22_combout\ $end
$var wire 1 $" \sws|output_rl[1]~25_combout\ $end
$var wire 1 %" \disp_result|Equal0~0_combout\ $end
$var wire 1 &" \sws|process_0~0_combout\ $end
$var wire 1 '" \sws|last_SW[0]~feeder_combout\ $end
$var wire 1 (" \sws|process_0~2_combout\ $end
$var wire 1 )" \sws|last_SW[8]~feeder_combout\ $end
$var wire 1 *" \sws|process_0~1_combout\ $end
$var wire 1 +" \sws|process_0~3_combout\ $end
$var wire 1 ," \sws|output_rl[2]~23_combout\ $end
$var wire 1 -" \sws|output_rl[2]~24_combout\ $end
$var wire 1 ." \sws|output_cs[2]~0_combout\ $end
$var wire 1 /" \sws|output_cs[2]~4_combout\ $end
$var wire 1 0" \sws|output_cs[0]~6_combout\ $end
$var wire 1 1" \sws|output_cs[1]~5_combout\ $end
$var wire 1 2" \sws|output_cs[2]~7_combout\ $end
$var wire 1 3" \disp_result|HEX0[0]~0_combout\ $end
$var wire 1 4" \disp_result|HEX0[2]~1_combout\ $end
$var wire 1 5" \disps|disp1|LessThan0~0_combout\ $end
$var wire 1 6" \disps|disp3|LessThan0~0_combout\ $end
$var wire 1 7" \disp_result|Equal0~1_combout\ $end
$var wire 1 8" \lvs|Mux1~0_combout\ $end
$var wire 1 9" \lvs|Mux0~0_combout\ $end
$var wire 1 :" \sws|output_cs\ [2] $end
$var wire 1 ;" \sws|output_cs\ [1] $end
$var wire 1 <" \sws|output_cs\ [0] $end
$var wire 1 =" \sws|output_rl\ [2] $end
$var wire 1 >" \sws|output_rl\ [1] $end
$var wire 1 ?" \sws|output_rl\ [0] $end
$var wire 1 @" \sws|last_SW\ [9] $end
$var wire 1 A" \sws|last_SW\ [8] $end
$var wire 1 B" \sws|last_SW\ [7] $end
$var wire 1 C" \sws|last_SW\ [6] $end
$var wire 1 D" \sws|last_SW\ [5] $end
$var wire 1 E" \sws|last_SW\ [4] $end
$var wire 1 F" \sws|last_SW\ [3] $end
$var wire 1 G" \sws|last_SW\ [2] $end
$var wire 1 H" \sws|last_SW\ [1] $end
$var wire 1 I" \sws|last_SW\ [0] $end
$var wire 1 J" \disp_result|ALT_INV_Equal0~1_combout\ $end
$var wire 1 K" \disps|disp3|ALT_INV_LessThan0~0_combout\ $end
$var wire 1 L" \sws|ALT_INV_Equal9~0_combout\ $end
$var wire 1 M" \sws|ALT_INV_output_rl\ [2] $end
$var wire 1 N" \sws|ALT_INV_output_cs\ [2] $end
$upscope $end
$upscope $end
$enddefinitions $end
#0
$dumpvars
0!
0T
1U
xV
1W
1X
1Y
1Z
1[
1\
0]
16!
17!
18!
19!
1:!
1;!
1<!
1=!
1>!
1?!
1@!
1A!
1B!
0C!
1D!
1E!
1F!
1G!
1H!
1I!
0J!
1K!
1L!
1M!
1N!
1O!
1P!
0Q!
1R!
1S!
1T!
1U!
1V!
1W!
0X!
1Y!
1Z!
1[!
1\!
1]!
0^!
0_!
0`!
0a!
0b!
0c!
0d!
0e!
0f!
1g!
0h!
0i!
1j!
0k!
0l!
0m!
0n!
0o!
1p!
0q!
1r!
0s!
0t!
0u!
1v!
1w!
0x!
0y!
0z!
1{!
1|!
1}!
1~!
1!"
1""
0#"
0$"
1%"
0&"
0'"
1("
0)"
1*"
0+"
1,"
0-"
0."
0/"
00"
01"
02"
13"
14"
15"
06"
07"
18"
19"
1J"
1K"
0L"
0J
0K
0L
0M
0N
0O
0P
0Q
0R
0S
1^
1_
1`
1a
1b
1c
1d
0e
1f
1g
1h
1i
1j
1k
0l
1m
1n
1o
1p
1q
1r
0s
1t
1u
1v
1w
1x
1y
0z
1{
1|
1}
1~
1!!
1"!
1#!
1$!
1%!
1&!
1'!
0(!
0)!
0*!
0+!
0,!
0-!
0.!
0/!
00!
01!
0:"
0;"
0<"
0="
0>"
0?"
0@"
0A"
0B"
0C"
0D"
0E"
0F"
0G"
0H"
0I"
1M"
1N"
12!
13!
14!
05!
1"
1#
1$
1%
1&
1'
1(
0)
1*
1+
1,
1-
1.
1/
00
11
12
13
14
15
16
07
18
19
1:
1;
1<
1=
0>
1?
1@
1A
1B
1C
1D
1E
1F
1G
1H
1I
$end
#500
1!
1]
1^!
15!
1_!
#1000
0!
0]
0^!
05!
0_!
#1500
1!
1]
1^!
15!
1_!
#2000
0!
0]
0^!
05!
0_!
#2500
1!
1]
1^!
15!
1_!
#3000
0!
0]
0^!
05!
0_!
#3500
1!
1]
1^!
15!
1_!
#4000
0!
0]
0^!
05!
0_!
#4500
1!
1]
1^!
15!
1_!
#5000
0!
0]
0^!
05!
0_!
#5500
1!
1]
1^!
15!
1_!
#6000
0!
0]
0^!
05!
0_!
#6500
1!
1]
1^!
15!
1_!
#7000
0!
0]
0^!
05!
0_!
#7500
1!
1]
1^!
15!
1_!
#8000
0!
0]
0^!
05!
0_!
#8500
1!
1]
1^!
15!
1_!
#9000
0!
0]
0^!
05!
0_!
#9500
1!
1]
1^!
15!
1_!
#10000
0!
0]
0^!
05!
0_!
#10500
1!
1]
1^!
15!
1_!
#11000
0!
0]
0^!
05!
0_!
#11500
1!
1]
1^!
15!
1_!
#12000
0!
0]
0^!
05!
0_!
#12500
1!
1]
1^!
15!
1_!
#13000
0!
0]
0^!
05!
0_!
#13500
1!
1]
1^!
15!
1_!
#14000
0!
0]
0^!
05!
0_!
#14500
1!
1]
1^!
15!
1_!
#15000
0!
0]
0^!
05!
0_!
#15500
1!
1]
1^!
15!
1_!
#16000
0!
0]
0^!
05!
0_!
#16500
1!
1]
1^!
15!
1_!
#17000
0!
0]
0^!
05!
0_!
#17500
1!
1]
1^!
15!
1_!
#18000
0!
0]
0^!
05!
0_!
#18500
1!
1]
1^!
15!
1_!
#19000
0!
0]
0^!
05!
0_!
#19500
1!
1]
1^!
15!
1_!
#20000
0!
0]
0^!
05!
0_!
#20500
1!
1]
1^!
15!
1_!
#21000
0!
0]
0^!
05!
0_!
#21500
1!
1]
1^!
15!
1_!
#22000
0!
0]
0^!
05!
0_!
#22500
1!
1]
1^!
15!
1_!
#23000
0!
0]
0^!
05!
0_!
#23500
1!
1]
1^!
15!
1_!
#24000
0!
0]
0^!
05!
0_!
#24500
1!
1]
1^!
15!
1_!
#25000
0!
0]
0^!
05!
0_!
#25500
1!
1]
1^!
15!
1_!
#26000
0!
0]
0^!
05!
0_!
#26500
1!
1]
1^!
15!
1_!
#27000
0!
0]
0^!
05!
0_!
#27500
1!
1]
1^!
15!
1_!
#28000
0!
0]
0^!
05!
0_!
#28500
1!
1]
1^!
15!
1_!
#29000
0!
0]
0^!
05!
0_!
#29500
1!
1]
1^!
15!
1_!
#30000
0!
0]
0^!
05!
0_!
#30500
1!
1]
1^!
15!
1_!
#31000
0!
0]
0^!
05!
0_!
#31500
1!
1]
1^!
15!
1_!
#32000
0!
0]
0^!
05!
0_!
#32500
1!
1]
1^!
15!
1_!
#33000
0!
0]
0^!
05!
0_!
#33500
1!
1]
1^!
15!
1_!
#34000
0!
0]
0^!
05!
0_!
#34500
1!
1]
1^!
15!
1_!
#35000
0!
0]
0^!
05!
0_!
#35500
1!
1]
1^!
15!
1_!
#36000
0!
0]
0^!
05!
0_!
#36500
1!
1]
1^!
15!
1_!
#37000
0!
0]
0^!
05!
0_!
#37500
1!
1]
1^!
15!
1_!
#38000
0!
0]
0^!
05!
0_!
#38500
1!
1]
1^!
15!
1_!
#39000
0!
0]
0^!
05!
0_!
#39500
1!
1]
1^!
15!
1_!
#40000
0!
0]
0^!
05!
0_!
#40500
1!
1]
1^!
15!
1_!
#41000
0!
0]
0^!
05!
0_!
#41500
1!
1]
1^!
15!
1_!
#42000
0!
0]
0^!
05!
0_!
#42500
1!
1]
1^!
15!
1_!
#43000
0!
0]
0^!
05!
0_!
#43500
1!
1]
1^!
15!
1_!
#44000
0!
0]
0^!
05!
0_!
#44500
1!
1]
1^!
15!
1_!
#45000
0!
0]
0^!
05!
0_!
#45500
1!
1]
1^!
15!
1_!
#46000
0!
0]
0^!
05!
0_!
#46500
1!
1]
1^!
15!
1_!
#47000
0!
0]
0^!
05!
0_!
#47500
1!
1]
1^!
15!
1_!
#48000
0!
0]
0^!
05!
0_!
#48500
1!
1]
1^!
15!
1_!
#49000
0!
0]
0^!
05!
0_!
#49500
1!
1]
1^!
15!
1_!
#50000
0!
1R
0]
10!
1a!
0^!
05!
1o!
0r!
0|!
0{!
0_!
0""
0}!
1&"
1+"
1."
1#"
#50500
1!
1]
1^!
15!
1_!
1?"
1H"
0("
0#"
1$"
0,"
09"
1-"
0+"
1,"
0."
0]!
1#"
0$"
0-"
0#!
0E
#51000
0!
0]
0^!
05!
0_!
#51500
1!
1]
1^!
15!
1_!
#52000
0!
0]
0^!
05!
0_!
#52500
1!
1]
1^!
15!
1_!
#53000
0!
0]
0^!
05!
0_!
#53500
1!
1]
1^!
15!
1_!
#54000
0!
0]
0^!
05!
0_!
#54500
1!
1]
1^!
15!
1_!
#55000
0!
0]
0^!
05!
0_!
#55500
1!
1]
1^!
15!
1_!
#56000
0!
0]
0^!
05!
0_!
#56500
1!
1]
1^!
15!
1_!
#57000
0!
0]
0^!
05!
0_!
#57500
1!
1]
1^!
15!
1_!
#58000
0!
0]
0^!
05!
0_!
#58500
1!
1]
1^!
15!
1_!
#59000
0!
0]
0^!
05!
0_!
#59500
1!
1]
1^!
15!
1_!
#60000
0!
0]
0^!
05!
0_!
#60500
1!
1]
1^!
15!
1_!
#61000
0!
0]
0^!
05!
0_!
#61500
1!
1]
1^!
15!
1_!
#62000
0!
0]
0^!
05!
0_!
#62500
1!
1]
1^!
15!
1_!
#63000
0!
0]
0^!
05!
0_!
#63500
1!
1]
1^!
15!
1_!
#64000
0!
0]
0^!
05!
0_!
#64500
1!
1]
1^!
15!
1_!
#65000
0!
0]
0^!
05!
0_!
#65500
1!
1]
1^!
15!
1_!
#66000
0!
0]
0^!
05!
0_!
#66500
1!
1]
1^!
15!
1_!
#67000
0!
0]
0^!
05!
0_!
#67500
1!
1]
1^!
15!
1_!
#68000
0!
0]
0^!
05!
0_!
#68500
1!
1]
1^!
15!
1_!
#69000
0!
0]
0^!
05!
0_!
#69500
1!
1]
1^!
15!
1_!
#70000
0!
0]
0^!
05!
0_!
#70500
1!
1]
1^!
15!
1_!
#71000
0!
0]
0^!
05!
0_!
#71500
1!
1]
1^!
15!
1_!
#72000
0!
0]
0^!
05!
0_!
#72500
1!
1]
1^!
15!
1_!
#73000
0!
0]
0^!
05!
0_!
#73500
1!
1]
1^!
15!
1_!
#74000
0!
0]
0^!
05!
0_!
#74500
1!
1]
1^!
15!
1_!
#75000
0!
0]
0^!
05!
0_!
#75500
1!
1]
1^!
15!
1_!
#76000
0!
0]
0^!
05!
0_!
#76500
1!
1]
1^!
15!
1_!
#77000
0!
0]
0^!
05!
0_!
#77500
1!
1]
1^!
15!
1_!
#78000
0!
0]
0^!
05!
0_!
#78500
1!
1]
1^!
15!
1_!
#79000
0!
0]
0^!
05!
0_!
#79500
1!
1]
1^!
15!
1_!
#80000
0!
0]
0^!
05!
0_!
#80500
1!
1]
1^!
15!
1_!
#81000
0!
0]
0^!
05!
0_!
#81500
1!
1]
1^!
15!
1_!
#82000
0!
0]
0^!
05!
0_!
#82500
1!
1]
1^!
15!
1_!
#83000
0!
0]
0^!
05!
0_!
#83500
1!
1]
1^!
15!
1_!
#84000
0!
0]
0^!
05!
0_!
#84500
1!
1]
1^!
15!
1_!
#85000
0!
0]
0^!
05!
0_!
#85500
1!
1]
1^!
15!
1_!
#86000
0!
0]
0^!
05!
0_!
#86500
1!
1]
1^!
15!
1_!
#87000
0!
0]
0^!
05!
0_!
#87500
1!
1]
1^!
15!
1_!
#88000
0!
0]
0^!
05!
0_!
#88500
1!
1]
1^!
15!
1_!
#89000
0!
0]
0^!
05!
0_!
#89500
1!
1]
1^!
15!
1_!
#90000
0!
0]
0^!
05!
0_!
#90500
1!
1]
1^!
15!
1_!
#91000
0!
0]
0^!
05!
0_!
#91500
1!
1]
1^!
15!
1_!
#92000
0!
0]
0^!
05!
0_!
#92500
1!
1]
1^!
15!
1_!
#93000
0!
0]
0^!
05!
0_!
#93500
1!
1]
1^!
15!
1_!
#94000
0!
0]
0^!
05!
0_!
#94500
1!
1]
1^!
15!
1_!
#95000
0!
0]
0^!
05!
0_!
#95500
1!
1]
1^!
15!
1_!
#96000
0!
0]
0^!
05!
0_!
#96500
1!
1]
1^!
15!
1_!
#97000
0!
0]
0^!
05!
0_!
#97500
1!
1]
1^!
15!
1_!
#98000
0!
0]
0^!
05!
0_!
#98500
1!
1]
1^!
15!
1_!
#99000
0!
0]
0^!
05!
0_!
#99500
1!
1]
1^!
15!
1_!
#100000
0!
0]
0^!
05!
0_!
#100500
1!
1]
1^!
15!
1_!
#101000
0!
0]
0^!
05!
0_!
#101500
1!
1]
1^!
15!
1_!
#102000
0!
0]
0^!
05!
0_!
#102500
1!
1]
1^!
15!
1_!
#103000
0!
0]
0^!
05!
0_!
#103500
1!
1]
1^!
15!
1_!
#104000
0!
0]
0^!
05!
0_!
#104500
1!
1]
1^!
15!
1_!
#105000
0!
0]
0^!
05!
0_!
#105500
1!
1]
1^!
15!
1_!
#106000
0!
0]
0^!
05!
0_!
#106500
1!
1]
1^!
15!
1_!
#107000
0!
0]
0^!
05!
0_!
#107500
1!
1]
1^!
15!
1_!
#108000
0!
0]
0^!
05!
0_!
#108500
1!
1]
1^!
15!
1_!
#109000
0!
0]
0^!
05!
0_!
#109500
1!
1]
1^!
15!
1_!
#110000
0!
0R
0]
00!
0a!
0^!
05!
0o!
1r!
1|!
1{!
0_!
1""
1}!
0&"
#110500
1!
1]
1^!
15!
1_!
0H"
1("
#111000
0!
0]
0^!
05!
0_!
#111500
1!
1]
1^!
15!
1_!
#112000
0!
0]
0^!
05!
0_!
#112500
1!
1]
1^!
15!
1_!
#113000
0!
0]
0^!
05!
0_!
#113500
1!
1]
1^!
15!
1_!
#114000
0!
0]
0^!
05!
0_!
#114500
1!
1]
1^!
15!
1_!
#115000
0!
0]
0^!
05!
0_!
#115500
1!
1]
1^!
15!
1_!
#116000
0!
0]
0^!
05!
0_!
#116500
1!
1]
1^!
15!
1_!
#117000
0!
0]
0^!
05!
0_!
#117500
1!
1]
1^!
15!
1_!
#118000
0!
0]
0^!
05!
0_!
#118500
1!
1]
1^!
15!
1_!
#119000
0!
0]
0^!
05!
0_!
#119500
1!
1]
1^!
15!
1_!
#120000
0!
0]
0^!
05!
0_!
#120500
1!
1]
1^!
15!
1_!
#121000
0!
0]
0^!
05!
0_!
#121500
1!
1]
1^!
15!
1_!
#122000
0!
0]
0^!
05!
0_!
#122500
1!
1]
1^!
15!
1_!
#123000
0!
0]
0^!
05!
0_!
#123500
1!
1]
1^!
15!
1_!
#124000
0!
0]
0^!
05!
0_!
#124500
1!
1]
1^!
15!
1_!
#125000
0!
0]
0^!
05!
0_!
#125500
1!
1]
1^!
15!
1_!
#126000
0!
0]
0^!
05!
0_!
#126500
1!
1]
1^!
15!
1_!
#127000
0!
0]
0^!
05!
0_!
#127500
1!
1]
1^!
15!
1_!
#128000
0!
0]
0^!
05!
0_!
#128500
1!
1]
1^!
15!
1_!
#129000
0!
0]
0^!
05!
0_!
#129500
1!
1]
1^!
15!
1_!
#130000
0!
0]
0^!
05!
0_!
#130500
1!
1]
1^!
15!
1_!
#131000
0!
0]
0^!
05!
0_!
#131500
1!
1]
1^!
15!
1_!
#132000
0!
0]
0^!
05!
0_!
#132500
1!
1]
1^!
15!
1_!
#133000
0!
0]
0^!
05!
0_!
#133500
1!
1]
1^!
15!
1_!
#134000
0!
0]
0^!
05!
0_!
#134500
1!
1]
1^!
15!
1_!
#135000
0!
0]
0^!
05!
0_!
#135500
1!
1]
1^!
15!
1_!
#136000
0!
0]
0^!
05!
0_!
#136500
1!
1]
1^!
15!
1_!
#137000
0!
0]
0^!
05!
0_!
#137500
1!
1]
1^!
15!
1_!
#138000
0!
0]
0^!
05!
0_!
#138500
1!
1]
1^!
15!
1_!
#139000
0!
0]
0^!
05!
0_!
#139500
1!
1]
1^!
15!
1_!
#140000
0!
0]
0^!
05!
0_!
#140500
1!
1]
1^!
15!
1_!
#141000
0!
0]
0^!
05!
0_!
#141500
1!
1]
1^!
15!
1_!
#142000
0!
0]
0^!
05!
0_!
#142500
1!
1]
1^!
15!
1_!
#143000
0!
0]
0^!
05!
0_!
#143500
1!
1]
1^!
15!
1_!
#144000
0!
0]
0^!
05!
0_!
#144500
1!
1]
1^!
15!
1_!
#145000
0!
0]
0^!
05!
0_!
#145500
1!
1]
1^!
15!
1_!
#146000
0!
0]
0^!
05!
0_!
#146500
1!
1]
1^!
15!
1_!
#147000
0!
0]
0^!
05!
0_!
#147500
1!
1]
1^!
15!
1_!
#148000
0!
0]
0^!
05!
0_!
#148500
1!
1]
1^!
15!
1_!
#149000
0!
0]
0^!
05!
0_!
#149500
1!
1]
1^!
15!
1_!
#150000
0!
0]
0^!
05!
0_!
#150500
1!
1]
1^!
15!
1_!
#151000
0!
0]
0^!
05!
0_!
#151500
1!
1]
1^!
15!
1_!
#152000
0!
0]
0^!
05!
0_!
#152500
1!
1]
1^!
15!
1_!
#153000
0!
0]
0^!
05!
0_!
#153500
1!
1]
1^!
15!
1_!
#154000
0!
0]
0^!
05!
0_!
#154500
1!
1]
1^!
15!
1_!
#155000
0!
0]
0^!
05!
0_!
#155500
1!
1]
1^!
15!
1_!
#156000
0!
0]
0^!
05!
0_!
#156500
1!
1]
1^!
15!
1_!
#157000
0!
0]
0^!
05!
0_!
#157500
1!
1]
1^!
15!
1_!
#158000
0!
0]
0^!
05!
0_!
#158500
1!
1]
1^!
15!
1_!
#159000
0!
0]
0^!
05!
0_!
#159500
1!
1]
1^!
15!
1_!
#160000
0!
0]
0^!
05!
0_!
#160500
1!
1]
1^!
15!
1_!
#161000
0!
0]
0^!
05!
0_!
#161500
1!
1]
1^!
15!
1_!
#162000
0!
0]
0^!
05!
0_!
#162500
1!
1]
1^!
15!
1_!
#163000
0!
0]
0^!
05!
0_!
#163500
1!
1]
1^!
15!
1_!
#164000
0!
0]
0^!
05!
0_!
#164500
1!
1]
1^!
15!
1_!
#165000
0!
0]
0^!
05!
0_!
#165500
1!
1]
1^!
15!
1_!
#166000
0!
0]
0^!
05!
0_!
#166500
1!
1]
1^!
15!
1_!
#167000
0!
0]
0^!
05!
0_!
#167500
1!
1]
1^!
15!
1_!
#168000
0!
0]
0^!
05!
0_!
#168500
1!
1]
1^!
15!
1_!
#169000
0!
0]
0^!
05!
0_!
#169500
1!
1]
1^!
15!
1_!
#170000
0!
1R
0]
10!
1a!
0^!
05!
1o!
0r!
0|!
0{!
0_!
0""
0}!
1&"
1+"
0,"
1."
0#"
1$"
1-"
#170500
1!
1]
1^!
15!
1_!
0?"
1>"
1H"
1="
0M"
0("
1#"
0+"
0\!
0."
0$!
0#"
0F
#171000
0!
0]
0^!
05!
0_!
#171500
1!
1]
1^!
15!
1_!
#172000
0!
0]
0^!
05!
0_!
#172500
1!
1]
1^!
15!
1_!
#173000
0!
0]
0^!
05!
0_!
#173500
1!
1]
1^!
15!
1_!
#174000
0!
0]
0^!
05!
0_!
#174500
1!
1]
1^!
15!
1_!
#175000
0!
0]
0^!
05!
0_!
#175500
1!
1]
1^!
15!
1_!
#176000
0!
0]
0^!
05!
0_!
#176500
1!
1]
1^!
15!
1_!
#177000
0!
0]
0^!
05!
0_!
#177500
1!
1]
1^!
15!
1_!
#178000
0!
0]
0^!
05!
0_!
#178500
1!
1]
1^!
15!
1_!
#179000
0!
0]
0^!
05!
0_!
#179500
1!
1]
1^!
15!
1_!
#180000
0!
0]
0^!
05!
0_!
#180500
1!
1]
1^!
15!
1_!
#181000
0!
0]
0^!
05!
0_!
#181500
1!
1]
1^!
15!
1_!
#182000
0!
0]
0^!
05!
0_!
#182500
1!
1]
1^!
15!
1_!
#183000
0!
0]
0^!
05!
0_!
#183500
1!
1]
1^!
15!
1_!
#184000
0!
0]
0^!
05!
0_!
#184500
1!
1]
1^!
15!
1_!
#185000
0!
0]
0^!
05!
0_!
#185500
1!
1]
1^!
15!
1_!
#186000
0!
0]
0^!
05!
0_!
#186500
1!
1]
1^!
15!
1_!
#187000
0!
0]
0^!
05!
0_!
#187500
1!
1]
1^!
15!
1_!
#188000
0!
0]
0^!
05!
0_!
#188500
1!
1]
1^!
15!
1_!
#189000
0!
0]
0^!
05!
0_!
#189500
1!
1]
1^!
15!
1_!
#190000
0!
0]
0^!
05!
0_!
#190500
1!
1]
1^!
15!
1_!
#191000
0!
0]
0^!
05!
0_!
#191500
1!
1]
1^!
15!
1_!
#192000
0!
0]
0^!
05!
0_!
#192500
1!
1]
1^!
15!
1_!
